digraph PyashFriendFlow {
// thing
node [shape=box, fillcolor=white, style="filled,rounded"];
question;
userWebsite;
accounting;
archive;
answer;
email;
answersToDifficultQuestions;
results;
cloudServices;
coin;
pseudononymousTranscripts;
healthMetrics;
query;
programAndDataset;
programResult;
rssFeed;
// information
node [fillcolor="red", style="filled,rounded"];
userProfile;
// interest
node [fillcolor="yellow", style="filled,rounded"];
posts;
story;
// decision
node [fillcolor="cyan", style="filled,rounded"];
chat;
comments;
// action
node [fillcolor="green", style="filled,rounded"];
productService;
paymentMethod;

node [shape=box, fillcolor=black, fontcolor=white, style="filled"]; 
user;
newsSites;
computerHardware;
distributionNode;
socialNetworks;
searchEngines;
blogs;
emailServers;
pyashFriend;
computeNodes;
hostingNode;
storageNodes;

userSalesFunnel;
customer;


user -> answer [dir="both"];
user -> story [dir="both"];
user -> question [dir="both"];
user -> productService;
productService -> userSalesFunnel [dir="both"];
userSalesFunnel -> paymentMethod;
paymentMethod -> coin;
userSalesFunnel -> accounting;
accounting -> pyashFriend;
coin -> user [dir="both"];
customer -> paymentMethod;
productService -> customer;
posts -> userSalesFunnel;
customer -> userWebsite;
userWebsite -> hostingNode;
cloudServices -> hostingNode [dir="both"];
userSalesFunnel -> userWebsite;
blogs -> userWebsite;

pyashFriend -> question [dir="both"];
pyashFriend -> healthMetrics;
pyashFriend -> email [dir="both"];
pyashFriend -> chat;
pyashFriend -> posts;
pyashFriend -> query;
pyashFriend -> answersToDifficultQuestions [dir="both"];
pyashFriend -> pseudononymousTranscripts;
pyashFriend -> answer [dir="both"];
pyashFriend -> story [dir="both"];
pyashFriend -> coin [dir="both"];
pyashFriend -> cloudServices [dir="both"];
results -> pyashFriend;

emailServers -> email [dir="both"];
posts -> blogs;
posts -> socialNetworks;
socialNetworks -> userProfile;
userProfile -> userSalesFunnel;
pyashFriend -> userProfile;
blogs -> comments;
comments -> pyashFriend;

socialNetworks -> chat [dir="both"];


query -> searchEngines;
searchEngines -> results;

distributionNode -> answersToDifficultQuestions [dir="both"];
distributionNode -> coin [dir="both"];
pseudononymousTranscripts -> distributionNode;
distributionNode -> cloudServices [dir="both"];

cloudServices -> storageNodes [dir="both"];
cloudServices -> computeNodes [dir="both"];
storageNodes -> archive [dir="both"];
distributionNode -> archive [dir="both"];
distributionNode -> coin;
coin -> storageNodes;
coin -> computeNodes;
distributionNode -> programAndDataset;
programAndDataset -> computeNodes;
computeNodes -> programResult;
programResult -> distributionNode;

newsSites -> rssFeed -> pyashFriend;


computerHardware -> healthMetrics;

overlap = false;
splines = true;
}
